%YAML 1.1
%TAG !u! tag:unity3d.com,2011:
--- !u!29 &1
OcclusionCullingSettings:
  m_ObjectHideFlags: 0
  serializedVersion: 2
  m_OcclusionBakeSettings:
    smallestOccluder: 5
    smallestHole: 0.25
    backfaceThreshold: 100
  m_SceneGUID: 00000000000000000000000000000000
  m_OcclusionCullingData: {fileID: 0}
--- !u!104 &2
RenderSettings:
  m_ObjectHideFlags: 0
  serializedVersion: 9
  m_Fog: 1
  m_FogColor: {r: 0, g: 0, b: 0, a: 0}
  m_FogMode: 3
  m_FogDensity: 0.01
  m_LinearFogStart: 0
  m_LinearFogEnd: 300
  m_AmbientSkyColor: {r: 0.2, g: 0.2, b: 0.2, a: 1}
  m_AmbientEquatorColor: {r: 0.2, g: 0.2, b: 0.2, a: 1}
  m_AmbientGroundColor: {r: 0.2, g: 0.2, b: 0.2, a: 1}
  m_AmbientIntensity: 1
  m_AmbientMode: 3
  m_SubtractiveShadowColor: {r: 0.42, g: 0.478, b: 0.627, a: 1}
  m_SkyboxMaterial: {fileID: 0}
  m_HaloStrength: 0.5
  m_FlareStrength: 1
  m_FlareFadeSpeed: 3
  m_HaloTexture: {fileID: 0}
  m_SpotCookie: {fileID: 10001, guid: 0000000000000000e000000000000000, type: 0}
  m_DefaultReflectionMode: 0
  m_DefaultReflectionResolution: 128
  m_ReflectionBounces: 1
  m_ReflectionIntensity: 1
  m_CustomReflection: {fileID: 0}
  m_Sun: {fileID: 0}
  m_IndirectSpecularColor: {r: 0, g: 0, b: 0, a: 1}
  m_UseRadianceAmbientProbe: 0
--- !u!157 &4
LightmapSettings:
  m_ObjectHideFlags: 0
  serializedVersion: 11
  m_GIWorkflowMode: 1
  m_GISettings:
    serializedVersion: 2
    m_BounceScale: 1
    m_IndirectOutputScale: 1
    m_AlbedoBoost: 1
    m_EnvironmentLightingMode: 0
    m_EnableBakedLightmaps: 1
    m_EnableRealtimeLightmaps: 0
  m_LightmapEditorSettings:
    serializedVersion: 12
    m_Resolution: 1
    m_BakeResolution: 50
    m_AtlasSize: 1024
    m_AO: 0
    m_AOMaxDistance: 1
    m_CompAOExponent: 0
    m_CompAOExponentDirect: 0
    m_ExtractAmbientOcclusion: 0
    m_Padding: 2
    m_LightmapParameters: {fileID: 0}
    m_LightmapsBakeMode: 1
    m_TextureCompression: 0
    m_FinalGather: 0
    m_FinalGatherFiltering: 1
    m_FinalGatherRayCount: 1024
    m_ReflectionCompression: 2
    m_MixedBakeMode: 1
    m_BakeBackend: 0
    m_PVRSampling: 1
    m_PVRDirectSampleCount: 32
    m_PVRSampleCount: 500
    m_PVRBounces: 2
    m_PVREnvironmentSampleCount: 500
    m_PVREnvironmentReferencePointCount: 2048
    m_PVRFilteringMode: 2
    m_PVRDenoiserTypeDirect: 0
    m_PVRDenoiserTypeIndirect: 0
    m_PVRDenoiserTypeAO: 0
    m_PVRFilterTypeDirect: 0
    m_PVRFilterTypeIndirect: 0
    m_PVRFilterTypeAO: 0
    m_PVREnvironmentMIS: 0
    m_PVRCulling: 1
    m_PVRFilteringGaussRadiusDirect: 1
    m_PVRFilteringGaussRadiusIndirect: 5
    m_PVRFilteringGaussRadiusAO: 2
    m_PVRFilteringAtrousPositionSigmaDirect: 0.5
    m_PVRFilteringAtrousPositionSigmaIndirect: 2
    m_PVRFilteringAtrousPositionSigmaAO: 1
    m_ShowResolutionOverlay: 1
    m_ExportTrainingData: 0
  m_LightingDataAsset: {fileID: 0}
  m_UseShadowmask: 0
--- !u!196 &5
NavMeshSettings:
  serializedVersion: 2
  m_ObjectHideFlags: 0
  m_BuildSettings:
    serializedVersion: 2
    agentTypeID: 0
    agentRadius: 0.5
    agentHeight: 2
    agentSlope: 45
    agentClimb: 0.4
    ledgeDropHeight: 0
    maxJumpAcrossDistance: 0
    minRegionArea: 2
    manualCellSize: 0
    cellSize: 0.16666666
    manualTileSize: 0
    tileSize: 256
    accuratePlacement: 0
    debug:
      m_Flags: 0
  m_NavMeshData: {fileID: 0}
--- !u!1001 &144675934
PrefabInstance:
  m_ObjectHideFlags: 0
  serializedVersion: 2
  m_Modification:
    m_TransformParent: {fileID: 1494325979}
    m_Modifications:
    - target: {fileID: 145898, guid: f58a667c8217aaf42b28e20ef609767b, type: 3}
      propertyPath: m_Name
      value: Platform1000x100 (6)
      objectReference: {fileID: 0}
    - target: {fileID: 471364, guid: f58a667c8217aaf42b28e20ef609767b, type: 3}
      propertyPath: m_LocalPosition.x
      value: -84.7
      objectReference: {fileID: 0}
    - target: {fileID: 471364, guid: f58a667c8217aaf42b28e20ef609767b, type: 3}
      propertyPath: m_LocalPosition.y
      value: -14
      objectReference: {fileID: 0}
    - target: {fileID: 471364, guid: f58a667c8217aaf42b28e20ef609767b, type: 3}
      propertyPath: m_LocalPosition.z
      value: -17.551758
      objectReference: {fileID: 0}
    - target: {fileID: 471364, guid: f58a667c8217aaf42b28e20ef609767b, type: 3}
      propertyPath: m_LocalRotation.x
      value: 0
      objectReference: {fileID: 0}
    - target: {fileID: 471364, guid: f58a667c8217aaf42b28e20ef609767b, type: 3}
      propertyPath: m_LocalRotation.y
      value: 0
      objectReference: {fileID: 0}
    - target: {fileID: 471364, guid: f58a667c8217aaf42b28e20ef609767b, type: 3}
      propertyPath: m_LocalRotation.z
      value: 0
      objectReference: {fileID: 0}
    - target: {fileID: 471364, guid: f58a667c8217aaf42b28e20ef609767b, type: 3}
      propertyPath: m_LocalRotation.w
      value: 1
      objectReference: {fileID: 0}
    - target: {fileID: 471364, guid: f58a667c8217aaf42b28e20ef609767b, type: 3}
      propertyPath: m_RootOrder
      value: 2
      objectReference: {fileID: 0}
    m_RemovedComponents: []
  m_SourcePrefab: {fileID: 100100000, guid: f58a667c8217aaf42b28e20ef609767b, type: 3}
--- !u!1 &213527044
GameObject:
  m_ObjectHideFlags: 0
  m_CorrespondingSourceObject: {fileID: 0}
  m_PrefabInstance: {fileID: 0}
  m_PrefabAsset: {fileID: 0}
  serializedVersion: 6
  m_Component:
  - component: {fileID: 213527045}
  - component: {fileID: 213527046}
  m_Layer: 0
  m_Name: LevelManager
  m_TagString: Untagged
  m_Icon: {fileID: 5721338939258241955, guid: 0000000000000000d000000000000000, type: 0}
  m_NavMeshLayer: 0
  m_StaticEditorFlags: 0
  m_IsActive: 1
--- !u!4 &213527045
Transform:
  m_ObjectHideFlags: 0
  m_CorrespondingSourceObject: {fileID: 0}
  m_PrefabInstance: {fileID: 0}
  m_PrefabAsset: {fileID: 0}
  m_GameObject: {fileID: 213527044}
  m_LocalRotation: {x: 0, y: 0, z: 0, w: 1}
  m_LocalPosition: {x: -106.2, y: 5.4, z: 0}
  m_LocalScale: {x: 1, y: 1, z: 1}
  m_Children: []
  m_Father: {fileID: 0}
  m_RootOrder: 2
  m_LocalEulerAnglesHint: {x: 0, y: 0, z: 0}
--- !u!114 &213527046
MonoBehaviour:
  m_ObjectHideFlags: 0
  m_CorrespondingSourceObject: {fileID: 0}
  m_PrefabInstance: {fileID: 0}
  m_PrefabAsset: {fileID: 0}
  m_GameObject: {fileID: 213527044}
  m_Enabled: 1
  m_EditorHideFlags: 0
  m_Script: {fileID: 11500000, guid: 88fcac034e6398d42ac254095d9b2d18, type: 3}
  m_Name: 
  m_EditorClassIdentifier: 
  PlayerPrefabs:
  - {fileID: 114473069959786316, guid: ddb8ffcdd255d0c449e5f5ec05c14930, type: 3}
  AutoAttributePlayerIDs: 1
  DebugSpawn: {fileID: 1132044354}
  CheckpointAttributionAxis: 0
  CheckpointAttributionDirection: 0
  CurrentCheckPoint: {fileID: 0}
  PointsOfEntry: []
  IntroFadeDuration: 1
  OutroFadeDuration: 1
  FadeCurve: 4
  RespawnDelay: 2
  LevelBounds:
    m_Center: {x: -66.05, y: -2.66, z: 0}
    m_Extent: {x: 19.6, y: 5.79, z: 5}
  ConvertToColliderBoundsButton: 0
  OneWayLevelMode: 0
  NoGoingBackColliderSize: {x: 5, y: 5}
  NoGoingBackThreshold: 5
  NoGoingBackMinDistanceFromBounds: 10
  OneWayLevelKillMode: 0
--- !u!4 &420936718 stripped
Transform:
  m_CorrespondingSourceObject: {fileID: 408230, guid: ce0837de5d2b5d140aea3195484dca8a,
    type: 3}
  m_PrefabInstance: {fileID: 2002450778}
  m_PrefabAsset: {fileID: 0}
--- !u!1 &543392101
GameObject:
  m_ObjectHideFlags: 0
  m_CorrespondingSourceObject: {fileID: 191730, guid: 927a7e5e78367cc4ba304dae75c80ddf,
    type: 3}
  m_PrefabInstance: {fileID: 0}
  m_PrefabAsset: {fileID: 0}
  serializedVersion: 6
  m_Component:
  - component: {fileID: 543392102}
  - component: {fileID: 543392106}
  - component: {fileID: 543392105}
  - component: {fileID: 543392104}
  - component: {fileID: 543392103}
  m_Layer: 5
  m_Name: TextPanel
  m_TagString: Untagged
  m_Icon: {fileID: 0}
  m_NavMeshLayer: 0
  m_StaticEditorFlags: 0
  m_IsActive: 1
--- !u!224 &543392102
RectTransform:
  m_ObjectHideFlags: 0
  m_CorrespondingSourceObject: {fileID: 22411506, guid: 927a7e5e78367cc4ba304dae75c80ddf,
    type: 3}
  m_PrefabInstance: {fileID: 0}
  m_PrefabAsset: {fileID: 0}
  m_GameObject: {fileID: 543392101}
  m_LocalRotation: {x: 0, y: 0, z: 0, w: 1}
  m_LocalPosition: {x: 0, y: 0, z: 0}
  m_LocalScale: {x: 1, y: 1, z: 1}
  m_Children:
  - {fileID: 1963870469}
  m_Father: {fileID: 1240283291}
  m_RootOrder: 0
  m_LocalEulerAnglesHint: {x: 0, y: 0, z: 0}
  m_AnchorMin: {x: 0.5, y: 0}
  m_AnchorMax: {x: 0.5, y: 0}
  m_AnchoredPosition: {x: -0.099999994, y: -0.40000153}
  m_SizeDelta: {x: 0, y: 0}
  m_Pivot: {x: 0.5, y: 0}
--- !u!114 &543392103
MonoBehaviour:
  m_ObjectHideFlags: 0
  m_CorrespondingSourceObject: {fileID: 11412030, guid: 927a7e5e78367cc4ba304dae75c80ddf,
    type: 3}
  m_PrefabInstance: {fileID: 0}
  m_PrefabAsset: {fileID: 0}
  m_GameObject: {fileID: 543392101}
  m_Enabled: 1
  m_EditorHideFlags: 0
  m_Script: {fileID: 1297475563, guid: f5f67c52d1564df4a8936ccd202a3bd8, type: 3}
  m_Name: 
  m_EditorClassIdentifier: 
  m_Padding:
    m_Left: 40
    m_Right: 40
    m_Top: 40
    m_Bottom: 40
  m_ChildAlignment: 7
  m_Spacing: 20
  m_ChildForceExpandWidth: 1
  m_ChildForceExpandHeight: 1
  m_ChildControlWidth: 1
  m_ChildControlHeight: 1
  m_ChildScaleWidth: 0
  m_ChildScaleHeight: 0
--- !u!114 &543392104
MonoBehaviour:
  m_ObjectHideFlags: 0
  m_CorrespondingSourceObject: {fileID: 11426180, guid: 927a7e5e78367cc4ba304dae75c80ddf,
    type: 3}
  m_PrefabInstance: {fileID: 0}
  m_PrefabAsset: {fileID: 0}
  m_GameObject: {fileID: 543392101}
  m_Enabled: 1
  m_EditorHideFlags: 0
  m_Script: {fileID: 1741964061, guid: f5f67c52d1564df4a8936ccd202a3bd8, type: 3}
  m_Name: 
  m_EditorClassIdentifier: 
  m_HorizontalFit: 2
  m_VerticalFit: 2
--- !u!114 &543392105
MonoBehaviour:
  m_ObjectHideFlags: 0
  m_CorrespondingSourceObject: {fileID: 11492808, guid: 927a7e5e78367cc4ba304dae75c80ddf,
    type: 3}
  m_PrefabInstance: {fileID: 0}
  m_PrefabAsset: {fileID: 0}
  m_GameObject: {fileID: 543392101}
  m_Enabled: 1
  m_EditorHideFlags: 0
  m_Script: {fileID: -765806418, guid: f5f67c52d1564df4a8936ccd202a3bd8, type: 3}
  m_Name: 
  m_EditorClassIdentifier: 
  m_Material: {fileID: 0}
  m_Color: {r: 0, g: 0, b: 0, a: 0.147}
  m_RaycastTarget: 1
  m_OnCullStateChanged:
    m_PersistentCalls:
      m_Calls: []
    m_TypeName: UnityEngine.UI.MaskableGraphic+CullStateChangedEvent, UnityEngine.UI,
      Version=1.0.0.0, Culture=neutral, PublicKeyToken=null
  m_Sprite: {fileID: 21300000, guid: 3c2d6119482397f43a379ecb3c9a6271, type: 3}
  m_Type: 1
  m_PreserveAspect: 0
  m_FillCenter: 1
  m_FillMethod: 4
  m_FillAmount: 1
  m_FillClockwise: 1
  m_FillOrigin: 0
  m_UseSpriteMesh: 0
--- !u!222 &543392106
CanvasRenderer:
  m_ObjectHideFlags: 0
  m_CorrespondingSourceObject: {fileID: 22225900, guid: 927a7e5e78367cc4ba304dae75c80ddf,
    type: 3}
  m_PrefabInstance: {fileID: 0}
  m_PrefabAsset: {fileID: 0}
  m_GameObject: {fileID: 543392101}
  m_CullTransparentMesh: 0
--- !u!1001 &642709391
PrefabInstance:
  m_ObjectHideFlags: 0
  serializedVersion: 2
  m_Modification:
    m_TransformParent: {fileID: 1494325979}
    m_Modifications:
    - target: {fileID: 145898, guid: f58a667c8217aaf42b28e20ef609767b, type: 3}
      propertyPath: m_Name
      value: Platform1000x100 (12)
      objectReference: {fileID: 0}
    - target: {fileID: 471364, guid: f58a667c8217aaf42b28e20ef609767b, type: 3}
      propertyPath: m_LocalPosition.x
      value: -84.7
      objectReference: {fileID: 0}
    - target: {fileID: 471364, guid: f58a667c8217aaf42b28e20ef609767b, type: 3}
      propertyPath: m_LocalPosition.y
      value: -3
      objectReference: {fileID: 0}
    - target: {fileID: 471364, guid: f58a667c8217aaf42b28e20ef609767b, type: 3}
      propertyPath: m_LocalPosition.z
      value: -17.551758
      objectReference: {fileID: 0}
    - target: {fileID: 471364, guid: f58a667c8217aaf42b28e20ef609767b, type: 3}
      propertyPath: m_LocalRotation.x
      value: 0
      objectReference: {fileID: 0}
    - target: {fileID: 471364, guid: f58a667c8217aaf42b28e20ef609767b, type: 3}
      propertyPath: m_LocalRotation.y
      value: 0
      objectReference: {fileID: 0}
    - target: {fileID: 471364, guid: f58a667c8217aaf42b28e20ef609767b, type: 3}
      propertyPath: m_LocalRotation.z
      value: 0
      objectReference: {fileID: 0}
    - target: {fileID: 471364, guid: f58a667c8217aaf42b28e20ef609767b, type: 3}
      propertyPath: m_LocalRotation.w
      value: 1
      objectReference: {fileID: 0}
    - target: {fileID: 471364, guid: f58a667c8217aaf42b28e20ef609767b, type: 3}
      propertyPath: m_RootOrder
      value: 10
      objectReference: {fileID: 0}
    m_RemovedComponents: []
  m_SourcePrefab: {fileID: 100100000, guid: f58a667c8217aaf42b28e20ef609767b, type: 3}
--- !u!4 &642709392 stripped
Transform:
  m_CorrespondingSourceObject: {fileID: 471364, guid: f58a667c8217aaf42b28e20ef609767b,
    type: 3}
  m_PrefabInstance: {fileID: 642709391}
  m_PrefabAsset: {fileID: 0}
--- !u!1001 &674179112
PrefabInstance:
  m_ObjectHideFlags: 0
  serializedVersion: 2
  m_Modification:
    m_TransformParent: {fileID: 1494325979}
    m_Modifications:
    - target: {fileID: 145898, guid: f58a667c8217aaf42b28e20ef609767b, type: 3}
      propertyPath: m_Name
      value: Platform1000x100 (7)
      objectReference: {fileID: 0}
    - target: {fileID: 471364, guid: f58a667c8217aaf42b28e20ef609767b, type: 3}
      propertyPath: m_LocalPosition.x
      value: -64.7
      objectReference: {fileID: 0}
    - target: {fileID: 471364, guid: f58a667c8217aaf42b28e20ef609767b, type: 3}
      propertyPath: m_LocalPosition.y
      value: -14.004799
      objectReference: {fileID: 0}
    - target: {fileID: 471364, guid: f58a667c8217aaf42b28e20ef609767b, type: 3}
      propertyPath: m_LocalPosition.z
      value: -17.551758
      objectReference: {fileID: 0}
    - target: {fileID: 471364, guid: f58a667c8217aaf42b28e20ef609767b, type: 3}
      propertyPath: m_LocalRotation.x
      value: 0
      objectReference: {fileID: 0}
    - target: {fileID: 471364, guid: f58a667c8217aaf42b28e20ef609767b, type: 3}
      propertyPath: m_LocalRotation.y
      value: 0
      objectReference: {fileID: 0}
    - target: {fileID: 471364, guid: f58a667c8217aaf42b28e20ef609767b, type: 3}
      propertyPath: m_LocalRotation.z
      value: 0
      objectReference: {fileID: 0}
    - target: {fileID: 471364, guid: f58a667c8217aaf42b28e20ef609767b, type: 3}
      propertyPath: m_LocalRotation.w
      value: 1
      objectReference: {fileID: 0}
    - target: {fileID: 471364, guid: f58a667c8217aaf42b28e20ef609767b, type: 3}
      propertyPath: m_RootOrder
      value: 3
      objectReference: {fileID: 0}
    m_RemovedComponents: []
  m_SourcePrefab: {fileID: 100100000, guid: f58a667c8217aaf42b28e20ef609767b, type: 3}
--- !u!1001 &704494586
PrefabInstance:
  m_ObjectHideFlags: 0
  serializedVersion: 2
  m_Modification:
    m_TransformParent: {fileID: 1494325979}
    m_Modifications:
    - target: {fileID: 145898, guid: f58a667c8217aaf42b28e20ef609767b, type: 3}
      propertyPath: m_Name
      value: Platform1000x100 (9)
      objectReference: {fileID: 0}
    - target: {fileID: 471364, guid: f58a667c8217aaf42b28e20ef609767b, type: 3}
      propertyPath: m_LocalPosition.x
      value: -74.7
      objectReference: {fileID: 0}
    - target: {fileID: 471364, guid: f58a667c8217aaf42b28e20ef609767b, type: 3}
      propertyPath: m_LocalPosition.y
      value: -3
      objectReference: {fileID: 0}
    - target: {fileID: 471364, guid: f58a667c8217aaf42b28e20ef609767b, type: 3}
      propertyPath: m_LocalPosition.z
      value: -17.551758
      objectReference: {fileID: 0}
    - target: {fileID: 471364, guid: f58a667c8217aaf42b28e20ef609767b, type: 3}
      propertyPath: m_LocalRotation.x
      value: 0
      objectReference: {fileID: 0}
    - target: {fileID: 471364, guid: f58a667c8217aaf42b28e20ef609767b, type: 3}
      propertyPath: m_LocalRotation.y
      value: 0
      objectReference: {fileID: 0}
    - target: {fileID: 471364, guid: f58a667c8217aaf42b28e20ef609767b, type: 3}
      propertyPath: m_LocalRotation.z
      value: 0
      objectReference: {fileID: 0}
    - target: {fileID: 471364, guid: f58a667c8217aaf42b28e20ef609767b, type: 3}
      propertyPath: m_LocalRotation.w
      value: 1
      objectReference: {fileID: 0}
    - target: {fileID: 471364, guid: f58a667c8217aaf42b28e20ef609767b, type: 3}
      propertyPath: m_RootOrder
      value: 7
      objectReference: {fileID: 0}
    m_RemovedComponents: []
  m_SourcePrefab: {fileID: 100100000, guid: f58a667c8217aaf42b28e20ef609767b, type: 3}
--- !u!4 &704494587 stripped
Transform:
  m_CorrespondingSourceObject: {fileID: 471364, guid: f58a667c8217aaf42b28e20ef609767b,
    type: 3}
  m_PrefabInstance: {fileID: 704494586}
  m_PrefabAsset: {fileID: 0}
--- !u!1001 &753023980
PrefabInstance:
  m_ObjectHideFlags: 0
  serializedVersion: 2
  m_Modification:
    m_TransformParent: {fileID: 0}
    m_Modifications:
    - target: {fileID: 6932121404212390242, guid: 67e9e6648638ca94eaaa9e41373f42f2,
        type: 3}
      propertyPath: m_Name
      value: MinimalCameraRig
      objectReference: {fileID: 0}
    - target: {fileID: 1844467417376146404, guid: 67e9e6648638ca94eaaa9e41373f42f2,
        type: 3}
      propertyPath: m_LocalPosition.x
      value: -74.293304
      objectReference: {fileID: 0}
    - target: {fileID: 1844467417376146404, guid: 67e9e6648638ca94eaaa9e41373f42f2,
        type: 3}
      propertyPath: m_LocalPosition.y
      value: 8.877897
      objectReference: {fileID: 0}
    - target: {fileID: 1844467417376146404, guid: 67e9e6648638ca94eaaa9e41373f42f2,
        type: 3}
      propertyPath: m_LocalPosition.z
      value: -2.0703125
      objectReference: {fileID: 0}
    - target: {fileID: 1844467417376146404, guid: 67e9e6648638ca94eaaa9e41373f42f2,
        type: 3}
      propertyPath: m_LocalRotation.x
      value: 0
      objectReference: {fileID: 0}
    - target: {fileID: 1844467417376146404, guid: 67e9e6648638ca94eaaa9e41373f42f2,
        type: 3}
      propertyPath: m_LocalRotation.y
      value: 0
      objectReference: {fileID: 0}
    - target: {fileID: 1844467417376146404, guid: 67e9e6648638ca94eaaa9e41373f42f2,
        type: 3}
      propertyPath: m_LocalRotation.z
      value: 0
      objectReference: {fileID: 0}
    - target: {fileID: 1844467417376146404, guid: 67e9e6648638ca94eaaa9e41373f42f2,
        type: 3}
      propertyPath: m_LocalRotation.w
      value: 1
      objectReference: {fileID: 0}
    - target: {fileID: 1844467417376146404, guid: 67e9e6648638ca94eaaa9e41373f42f2,
        type: 3}
      propertyPath: m_RootOrder
      value: 3
      objectReference: {fileID: 0}
    - target: {fileID: 1844467417376146404, guid: 67e9e6648638ca94eaaa9e41373f42f2,
        type: 3}
      propertyPath: m_LocalEulerAnglesHint.x
      value: 0
      objectReference: {fileID: 0}
    - target: {fileID: 1844467417376146404, guid: 67e9e6648638ca94eaaa9e41373f42f2,
        type: 3}
      propertyPath: m_LocalEulerAnglesHint.y
      value: 0
      objectReference: {fileID: 0}
    - target: {fileID: 1844467417376146404, guid: 67e9e6648638ca94eaaa9e41373f42f2,
        type: 3}
      propertyPath: m_LocalEulerAnglesHint.z
      value: 0
      objectReference: {fileID: 0}
    m_RemovedComponents: []
  m_SourcePrefab: {fileID: 100100000, guid: 67e9e6648638ca94eaaa9e41373f42f2, type: 3}
--- !u!1001 &778499797
PrefabInstance:
  m_ObjectHideFlags: 0
  serializedVersion: 2
  m_Modification:
    m_TransformParent: {fileID: 1494325979}
    m_Modifications:
    - target: {fileID: 145898, guid: f58a667c8217aaf42b28e20ef609767b, type: 3}
      propertyPath: m_Name
      value: Platform1000x100 (10)
      objectReference: {fileID: 0}
    - target: {fileID: 471364, guid: f58a667c8217aaf42b28e20ef609767b, type: 3}
      propertyPath: m_LocalPosition.x
      value: -94.7
      objectReference: {fileID: 0}
    - target: {fileID: 471364, guid: f58a667c8217aaf42b28e20ef609767b, type: 3}
      propertyPath: m_LocalPosition.y
      value: -3
      objectReference: {fileID: 0}
    - target: {fileID: 471364, guid: f58a667c8217aaf42b28e20ef609767b, type: 3}
      propertyPath: m_LocalPosition.z
      value: -17.551758
      objectReference: {fileID: 0}
    - target: {fileID: 471364, guid: f58a667c8217aaf42b28e20ef609767b, type: 3}
      propertyPath: m_LocalRotation.x
      value: 0
      objectReference: {fileID: 0}
    - target: {fileID: 471364, guid: f58a667c8217aaf42b28e20ef609767b, type: 3}
      propertyPath: m_LocalRotation.y
      value: 0
      objectReference: {fileID: 0}
    - target: {fileID: 471364, guid: f58a667c8217aaf42b28e20ef609767b, type: 3}
      propertyPath: m_LocalRotation.z
      value: 0
      objectReference: {fileID: 0}
    - target: {fileID: 471364, guid: f58a667c8217aaf42b28e20ef609767b, type: 3}
      propertyPath: m_LocalRotation.w
      value: 1
      objectReference: {fileID: 0}
    - target: {fileID: 471364, guid: f58a667c8217aaf42b28e20ef609767b, type: 3}
      propertyPath: m_RootOrder
      value: 8
      objectReference: {fileID: 0}
    m_RemovedComponents: []
  m_SourcePrefab: {fileID: 100100000, guid: f58a667c8217aaf42b28e20ef609767b, type: 3}
--- !u!4 &778499798 stripped
Transform:
  m_CorrespondingSourceObject: {fileID: 471364, guid: f58a667c8217aaf42b28e20ef609767b,
    type: 3}
  m_PrefabInstance: {fileID: 778499797}
  m_PrefabAsset: {fileID: 0}
--- !u!4 &805796091 stripped
Transform:
  m_CorrespondingSourceObject: {fileID: 471364, guid: f58a667c8217aaf42b28e20ef609767b,
    type: 3}
  m_PrefabInstance: {fileID: 1249012446}
  m_PrefabAsset: {fileID: 0}
--- !u!1 &909865713 stripped
GameObject:
  m_CorrespondingSourceObject: {fileID: 100000, guid: 7a343ffc127af4b41b1e509d55d21956,
    type: 3}
  m_PrefabInstance: {fileID: 920433731}
  m_PrefabAsset: {fileID: 0}
--- !u!61 &909865714
BoxCollider2D:
  m_ObjectHideFlags: 0
  m_CorrespondingSourceObject: {fileID: 0}
  m_PrefabInstance: {fileID: 0}
  m_PrefabAsset: {fileID: 0}
  m_GameObject: {fileID: 909865713}
  m_Enabled: 1
  m_Density: 1
  m_Material: {fileID: 0}
  m_IsTrigger: 0
  m_UsedByEffector: 0
  m_UsedByComposite: 0
  m_Offset: {x: 0, y: 0}
  m_SpriteTilingProperty:
    border: {x: 0, y: 0, z: 0, w: 0}
    pivot: {x: 0, y: 0}
    oldSize: {x: 0, y: 0}
    newSize: {x: 0, y: 0}
    adaptiveTilingThreshold: 0
    drawMode: 0
    adaptiveTiling: 0
  m_AutoTiling: 0
  serializedVersion: 2
  m_Size: {x: 1, y: 1}
  m_EdgeRadius: 0
--- !u!1001 &920433731
PrefabInstance:
  m_ObjectHideFlags: 0
  serializedVersion: 2
  m_Modification:
    m_TransformParent: {fileID: 1858949006}
    m_Modifications:
    - target: {fileID: 400000, guid: 7a343ffc127af4b41b1e509d55d21956, type: 3}
      propertyPath: m_LocalPosition.x
      value: -95.06
      objectReference: {fileID: 0}
    - target: {fileID: 400000, guid: 7a343ffc127af4b41b1e509d55d21956, type: 3}
      propertyPath: m_LocalPosition.y
      value: -11.4
      objectReference: {fileID: 0}
    - target: {fileID: 400000, guid: 7a343ffc127af4b41b1e509d55d21956, type: 3}
      propertyPath: m_LocalPosition.z
      value: 0
      objectReference: {fileID: 0}
    - target: {fileID: 400000, guid: 7a343ffc127af4b41b1e509d55d21956, type: 3}
      propertyPath: m_LocalRotation.x
      value: 0
      objectReference: {fileID: 0}
    - target: {fileID: 400000, guid: 7a343ffc127af4b41b1e509d55d21956, type: 3}
      propertyPath: m_LocalRotation.y
      value: 0
      objectReference: {fileID: 0}
    - target: {fileID: 400000, guid: 7a343ffc127af4b41b1e509d55d21956, type: 3}
      propertyPath: m_LocalRotation.z
      value: 0
      objectReference: {fileID: 0}
    - target: {fileID: 400000, guid: 7a343ffc127af4b41b1e509d55d21956, type: 3}
      propertyPath: m_LocalRotation.w
      value: 1
      objectReference: {fileID: 0}
    - target: {fileID: 400000, guid: 7a343ffc127af4b41b1e509d55d21956, type: 3}
      propertyPath: m_RootOrder
      value: 1
      objectReference: {fileID: 0}
    m_RemovedComponents: []
  m_SourcePrefab: {fileID: 100100000, guid: 7a343ffc127af4b41b1e509d55d21956, type: 3}
--- !u!1 &1072031669
GameObject:
  m_ObjectHideFlags: 0
  m_CorrespondingSourceObject: {fileID: 0}
  m_PrefabInstance: {fileID: 0}
  m_PrefabAsset: {fileID: 0}
  serializedVersion: 6
  m_Component:
  - component: {fileID: 1072031673}
  - component: {fileID: 1072031672}
  - component: {fileID: 1072031671}
  - component: {fileID: 1072031670}
  m_Layer: 22
  m_Name: Background
  m_TagString: Untagged
  m_Icon: {fileID: 0}
  m_NavMeshLayer: 0
  m_StaticEditorFlags: 0
  m_IsActive: 1
--- !u!23 &1072031670
MeshRenderer:
  m_ObjectHideFlags: 0
  m_CorrespondingSourceObject: {fileID: 0}
  m_PrefabInstance: {fileID: 0}
  m_PrefabAsset: {fileID: 0}
  m_GameObject: {fileID: 1072031669}
  m_Enabled: 1
  m_CastShadows: 1
  m_ReceiveShadows: 1
  m_DynamicOccludee: 1
  m_MotionVectors: 1
  m_LightProbeUsage: 1
  m_ReflectionProbeUsage: 1
  m_RenderingLayerMask: 4294967295
  m_RendererPriority: 0
  m_Materials:
  - {fileID: 2100000, guid: 133b0ff1159ab7b4298b20c9f9fb75fa, type: 2}
  m_StaticBatchInfo:
    firstSubMesh: 0
    subMeshCount: 0
  m_StaticBatchRoot: {fileID: 0}
  m_ProbeAnchor: {fileID: 0}
  m_LightProbeVolumeOverride: {fileID: 0}
  m_ScaleInLightmap: 1
  m_PreserveUVs: 1
  m_IgnoreNormalsForChartDetection: 0
  m_ImportantGI: 0
  m_StitchLightmapSeams: 0
  m_SelectedEditorRenderState: 3
  m_MinimumChartSize: 4
  m_AutoUVMaxDistance: 0.5
  m_AutoUVMaxAngle: 89
  m_LightmapParameters: {fileID: 0}
  m_SortingLayerID: -1620175883
  m_SortingLayer: -1
  m_SortingOrder: 0
--- !u!64 &1072031671
MeshCollider:
  m_ObjectHideFlags: 0
  m_CorrespondingSourceObject: {fileID: 0}
  m_PrefabInstance: {fileID: 0}
  m_PrefabAsset: {fileID: 0}
  m_GameObject: {fileID: 1072031669}
  m_Material: {fileID: 0}
  m_IsTrigger: 0
  m_Enabled: 1
  serializedVersion: 3
  m_Convex: 0
  m_CookingOptions: 14
  m_Mesh: {fileID: 10210, guid: 0000000000000000e000000000000000, type: 0}
--- !u!33 &1072031672
MeshFilter:
  m_ObjectHideFlags: 0
  m_CorrespondingSourceObject: {fileID: 0}
  m_PrefabInstance: {fileID: 0}
  m_PrefabAsset: {fileID: 0}
  m_GameObject: {fileID: 1072031669}
  m_Mesh: {fileID: 10210, guid: 0000000000000000e000000000000000, type: 0}
--- !u!4 &1072031673
Transform:
  m_ObjectHideFlags: 0
  m_CorrespondingSourceObject: {fileID: 0}
  m_PrefabInstance: {fileID: 0}
  m_PrefabAsset: {fileID: 0}
  m_GameObject: {fileID: 1072031669}
  m_LocalRotation: {x: 0, y: 0, z: 0, w: 1}
  m_LocalPosition: {x: 36.43915, y: -7.664153, z: -14.001758}
  m_LocalScale: {x: 512, y: 512, z: 1}
  m_Children: []
  m_Father: {fileID: 1494325979}
  m_RootOrder: 0
  m_LocalEulerAnglesHint: {x: 0, y: 0, z: 0}
--- !u!114 &1132044354 stripped
MonoBehaviour:
  m_CorrespondingSourceObject: {fileID: 11400000, guid: 7a343ffc127af4b41b1e509d55d21956,
    type: 3}
  m_PrefabInstance: {fileID: 920433731}
  m_PrefabAsset: {fileID: 0}
  m_GameObject: {fileID: 909865713}
  m_Enabled: 1
  m_EditorHideFlags: 0
  m_Script: {fileID: 11500000, guid: 923a01d66c4618446abb082250646478, type: 3}
  m_Name: 
  m_EditorClassIdentifier: 
--- !u!1 &1240283290
GameObject:
  m_ObjectHideFlags: 0
  m_CorrespondingSourceObject: {fileID: 199184, guid: 927a7e5e78367cc4ba304dae75c80ddf,
    type: 3}
  m_PrefabInstance: {fileID: 0}
  m_PrefabAsset: {fileID: 0}
  serializedVersion: 6
  m_Component:
  - component: {fileID: 1240283291}
  - component: {fileID: 1240283295}
  - component: {fileID: 1240283294}
  - component: {fileID: 1240283293}
  - component: {fileID: 1240283292}
  m_Layer: 5
  m_Name: SignPost (1)
  m_TagString: Untagged
  m_Icon: {fileID: 0}
  m_NavMeshLayer: 0
  m_StaticEditorFlags: 0
  m_IsActive: 1
--- !u!224 &1240283291
RectTransform:
  m_ObjectHideFlags: 0
  m_CorrespondingSourceObject: {fileID: 22427506, guid: 927a7e5e78367cc4ba304dae75c80ddf,
    type: 3}
  m_PrefabInstance: {fileID: 0}
  m_PrefabAsset: {fileID: 0}
  m_GameObject: {fileID: 1240283290}
  m_LocalRotation: {x: -0, y: -0, z: -0, w: 1}
  m_LocalPosition: {x: 0, y: 0, z: 1}
  m_LocalScale: {x: 0.01, y: 0.01, z: 0.01}
  m_Children:
  - {fileID: 543392102}
  m_Father: {fileID: 1858949006}
  m_RootOrder: 2
  m_LocalEulerAnglesHint: {x: 0, y: 0, z: 0}
  m_AnchorMin: {x: 0, y: 0}
  m_AnchorMax: {x: 0, y: 0}
  m_AnchoredPosition: {x: -88.42, y: -10.98}
  m_SizeDelta: {x: 100, y: 100}
  m_Pivot: {x: 0.5, y: 0.5}
--- !u!114 &1240283292
MonoBehaviour:
  m_ObjectHideFlags: 0
  m_CorrespondingSourceObject: {fileID: 0}
  m_PrefabInstance: {fileID: 0}
  m_PrefabAsset: {fileID: 0}
  m_GameObject: {fileID: 1240283290}
  m_Enabled: 1
  m_EditorHideFlags: 0
  m_Script: {fileID: 11500000, guid: 0e7d04d6c99d99b44bcbbf1dd8aa5547, type: 3}
  m_Name: 
  m_EditorClassIdentifier: 
--- !u!114 &1240283293
MonoBehaviour:
  m_ObjectHideFlags: 0
  m_CorrespondingSourceObject: {fileID: 11417456, guid: 927a7e5e78367cc4ba304dae75c80ddf,
    type: 3}
  m_PrefabInstance: {fileID: 0}
  m_PrefabAsset: {fileID: 0}
  m_GameObject: {fileID: 1240283290}
  m_Enabled: 1
  m_EditorHideFlags: 0
  m_Script: {fileID: 1301386320, guid: f5f67c52d1564df4a8936ccd202a3bd8, type: 3}
  m_Name: 
  m_EditorClassIdentifier: 
  m_IgnoreReversedGraphics: 1
  m_BlockingObjects: 0
  m_BlockingMask:
    serializedVersion: 2
    m_Bits: 4294967295
--- !u!114 &1240283294
MonoBehaviour:
  m_ObjectHideFlags: 0
  m_CorrespondingSourceObject: {fileID: 11474256, guid: 927a7e5e78367cc4ba304dae75c80ddf,
    type: 3}
  m_PrefabInstance: {fileID: 0}
  m_PrefabAsset: {fileID: 0}
  m_GameObject: {fileID: 1240283290}
  m_Enabled: 1
  m_EditorHideFlags: 0
  m_Script: {fileID: 1980459831, guid: f5f67c52d1564df4a8936ccd202a3bd8, type: 3}
  m_Name: 
  m_EditorClassIdentifier: 
  m_UiScaleMode: 0
  m_ReferencePixelsPerUnit: 100
  m_ScaleFactor: 1
  m_ReferenceResolution: {x: 800, y: 600}
  m_ScreenMatchMode: 0
  m_MatchWidthOrHeight: 0
  m_PhysicalUnit: 3
  m_FallbackScreenDPI: 96
  m_DefaultSpriteDPI: 96
  m_DynamicPixelsPerUnit: 1
--- !u!223 &1240283295
Canvas:
  m_ObjectHideFlags: 0
  m_CorrespondingSourceObject: {fileID: 22393046, guid: 927a7e5e78367cc4ba304dae75c80ddf,
    type: 3}
  m_PrefabInstance: {fileID: 0}
  m_PrefabAsset: {fileID: 0}
  m_GameObject: {fileID: 1240283290}
  m_Enabled: 1
  serializedVersion: 3
  m_RenderMode: 2
  m_Camera: {fileID: 0}
  m_PlaneDistance: 100
  m_PixelPerfect: 0
  m_ReceivesEvents: 1
  m_OverrideSorting: 0
  m_OverridePixelPerfect: 0
  m_SortingBucketNormalizedSize: 0
  m_AdditionalShaderChannelsFlag: 25
  m_SortingLayerID: -1620175883
  m_SortingOrder: 5
  m_TargetDisplay: 0
--- !u!1001 &1249012446
PrefabInstance:
  m_ObjectHideFlags: 0
  serializedVersion: 2
  m_Modification:
    m_TransformParent: {fileID: 1494325979}
    m_Modifications:
    - target: {fileID: 145898, guid: f58a667c8217aaf42b28e20ef609767b, type: 3}
      propertyPath: m_Name
      value: Platform1000x100 (5)
      objectReference: {fileID: 0}
    - target: {fileID: 471364, guid: f58a667c8217aaf42b28e20ef609767b, type: 3}
      propertyPath: m_LocalPosition.x
      value: -94.7
      objectReference: {fileID: 0}
    - target: {fileID: 471364, guid: f58a667c8217aaf42b28e20ef609767b, type: 3}
      propertyPath: m_LocalPosition.y
      value: -14
      objectReference: {fileID: 0}
    - target: {fileID: 471364, guid: f58a667c8217aaf42b28e20ef609767b, type: 3}
      propertyPath: m_LocalPosition.z
      value: -17.551758
      objectReference: {fileID: 0}
    - target: {fileID: 471364, guid: f58a667c8217aaf42b28e20ef609767b, type: 3}
      propertyPath: m_LocalRotation.x
      value: 0
      objectReference: {fileID: 0}
    - target: {fileID: 471364, guid: f58a667c8217aaf42b28e20ef609767b, type: 3}
      propertyPath: m_LocalRotation.y
      value: 0
      objectReference: {fileID: 0}
    - target: {fileID: 471364, guid: f58a667c8217aaf42b28e20ef609767b, type: 3}
      propertyPath: m_LocalRotation.z
      value: 0
      objectReference: {fileID: 0}
    - target: {fileID: 471364, guid: f58a667c8217aaf42b28e20ef609767b, type: 3}
      propertyPath: m_LocalRotation.w
      value: 1
      objectReference: {fileID: 0}
    - target: {fileID: 471364, guid: f58a667c8217aaf42b28e20ef609767b, type: 3}
      propertyPath: m_RootOrder
      value: 1
      objectReference: {fileID: 0}
    m_RemovedComponents: []
  m_SourcePrefab: {fileID: 100100000, guid: f58a667c8217aaf42b28e20ef609767b, type: 3}
--- !u!1001 &1270509431
PrefabInstance:
  m_ObjectHideFlags: 0
  serializedVersion: 2
  m_Modification:
    m_TransformParent: {fileID: 1494325979}
    m_Modifications:
    - target: {fileID: 145898, guid: f58a667c8217aaf42b28e20ef609767b, type: 3}
      propertyPath: m_Name
      value: Platform1000x100 (8)
      objectReference: {fileID: 0}
    - target: {fileID: 471364, guid: f58a667c8217aaf42b28e20ef609767b, type: 3}
      propertyPath: m_LocalPosition.x
      value: -74.7
      objectReference: {fileID: 0}
    - target: {fileID: 471364, guid: f58a667c8217aaf42b28e20ef609767b, type: 3}
      propertyPath: m_LocalPosition.y
      value: -14
      objectReference: {fileID: 0}
    - target: {fileID: 471364, guid: f58a667c8217aaf42b28e20ef609767b, type: 3}
      propertyPath: m_LocalPosition.z
      value: -17.551758
      objectReference: {fileID: 0}
    - target: {fileID: 471364, guid: f58a667c8217aaf42b28e20ef609767b, type: 3}
      propertyPath: m_LocalRotation.x
      value: 0
      objectReference: {fileID: 0}
    - target: {fileID: 471364, guid: f58a667c8217aaf42b28e20ef609767b, type: 3}
      propertyPath: m_LocalRotation.y
      value: 0
      objectReference: {fileID: 0}
    - target: {fileID: 471364, guid: f58a667c8217aaf42b28e20ef609767b, type: 3}
      propertyPath: m_LocalRotation.z
      value: 0
      objectReference: {fileID: 0}
    - target: {fileID: 471364, guid: f58a667c8217aaf42b28e20ef609767b, type: 3}
      propertyPath: m_LocalRotation.w
      value: 1
      objectReference: {fileID: 0}
    - target: {fileID: 471364, guid: f58a667c8217aaf42b28e20ef609767b, type: 3}
      propertyPath: m_RootOrder
      value: 4
      objectReference: {fileID: 0}
    m_RemovedComponents: []
  m_SourcePrefab: {fileID: 100100000, guid: f58a667c8217aaf42b28e20ef609767b, type: 3}
--- !u!4 &1272944680 stripped
Transform:
  m_CorrespondingSourceObject: {fileID: 471364, guid: f58a667c8217aaf42b28e20ef609767b,
    type: 3}
  m_PrefabInstance: {fileID: 1270509431}
  m_PrefabAsset: {fileID: 0}
--- !u!4 &1370723985 stripped
Transform:
  m_CorrespondingSourceObject: {fileID: 471364, guid: f58a667c8217aaf42b28e20ef609767b,
    type: 3}
  m_PrefabInstance: {fileID: 144675934}
  m_PrefabAsset: {fileID: 0}
--- !u!1001 &1398692770
PrefabInstance:
  m_ObjectHideFlags: 0
  serializedVersion: 2
  m_Modification:
    m_TransformParent: {fileID: 1494325979}
    m_Modifications:
    - target: {fileID: 145898, guid: f58a667c8217aaf42b28e20ef609767b, type: 3}
      propertyPath: m_Name
      value: Platform1000x100 (11)
      objectReference: {fileID: 0}
    - target: {fileID: 471364, guid: f58a667c8217aaf42b28e20ef609767b, type: 3}
      propertyPath: m_LocalPosition.x
      value: -64.7
      objectReference: {fileID: 0}
    - target: {fileID: 471364, guid: f58a667c8217aaf42b28e20ef609767b, type: 3}
      propertyPath: m_LocalPosition.y
      value: -3
      objectReference: {fileID: 0}
    - target: {fileID: 471364, guid: f58a667c8217aaf42b28e20ef609767b, type: 3}
      propertyPath: m_LocalPosition.z
      value: -17.551758
      objectReference: {fileID: 0}
    - target: {fileID: 471364, guid: f58a667c8217aaf42b28e20ef609767b, type: 3}
      propertyPath: m_LocalRotation.x
      value: 0
      objectReference: {fileID: 0}
    - target: {fileID: 471364, guid: f58a667c8217aaf42b28e20ef609767b, type: 3}
      propertyPath: m_LocalRotation.y
      value: 0
      objectReference: {fileID: 0}
    - target: {fileID: 471364, guid: f58a667c8217aaf42b28e20ef609767b, type: 3}
      propertyPath: m_LocalRotation.z
      value: 0
      objectReference: {fileID: 0}
    - target: {fileID: 471364, guid: f58a667c8217aaf42b28e20ef609767b, type: 3}
      propertyPath: m_LocalRotation.w
      value: 1
      objectReference: {fileID: 0}
    - target: {fileID: 471364, guid: f58a667c8217aaf42b28e20ef609767b, type: 3}
      propertyPath: m_RootOrder
      value: 9
      objectReference: {fileID: 0}
    m_RemovedComponents: []
  m_SourcePrefab: {fileID: 100100000, guid: f58a667c8217aaf42b28e20ef609767b, type: 3}
--- !u!4 &1398692771 stripped
Transform:
  m_CorrespondingSourceObject: {fileID: 471364, guid: f58a667c8217aaf42b28e20ef609767b,
    type: 3}
  m_PrefabInstance: {fileID: 1398692770}
  m_PrefabAsset: {fileID: 0}
--- !u!1 &1494325978
GameObject:
  m_ObjectHideFlags: 0
  m_CorrespondingSourceObject: {fileID: 0}
  m_PrefabInstance: {fileID: 0}
  m_PrefabAsset: {fileID: 0}
  serializedVersion: 6
  m_Component:
  - component: {fileID: 1494325979}
  m_Layer: 0
  m_Name: OptionalPlatforms
  m_TagString: Untagged
  m_Icon: {fileID: 0}
  m_NavMeshLayer: 0
  m_StaticEditorFlags: 0
  m_IsActive: 1
--- !u!4 &1494325979
Transform:
  m_ObjectHideFlags: 0
  m_CorrespondingSourceObject: {fileID: 0}
  m_PrefabInstance: {fileID: 0}
  m_PrefabAsset: {fileID: 0}
  m_GameObject: {fileID: 1494325978}
  m_LocalRotation: {x: 0, y: 0, z: 0, w: 1}
  m_LocalPosition: {x: 0.46084976, y: -1.1358471, z: 17.551758}
  m_LocalScale: {x: 1, y: 1, z: 1}
  m_Children:
  - {fileID: 1072031673}
  - {fileID: 805796091}
  - {fileID: 1370723985}
  - {fileID: 2137779173}
  - {fileID: 1272944680}
  - {fileID: 420936718}
  - {fileID: 2010980462}
  - {fileID: 704494587}
  - {fileID: 778499798}
  - {fileID: 1398692771}
  - {fileID: 642709392}
  m_Father: {fileID: 1858949006}
  m_RootOrder: 0
  m_LocalEulerAnglesHint: {x: 0, y: 0, z: 0}
--- !u!4 &1505988468 stripped
Transform:
  m_CorrespondingSourceObject: {fileID: 400000, guid: 7a343ffc127af4b41b1e509d55d21956,
    type: 3}
  m_PrefabInstance: {fileID: 920433731}
  m_PrefabAsset: {fileID: 0}
--- !u!1001 &1674947919
PrefabInstance:
  m_ObjectHideFlags: 0
  serializedVersion: 2
  m_Modification:
    m_TransformParent: {fileID: 0}
    m_Modifications:
    - target: {fileID: 400002, guid: ace2d4bf56f98df4196ff81845a465d7, type: 3}
      propertyPath: m_LocalPosition.x
      value: -140.2
      objectReference: {fileID: 0}
    - target: {fileID: 400002, guid: ace2d4bf56f98df4196ff81845a465d7, type: 3}
      propertyPath: m_LocalPosition.y
      value: 2.5
      objectReference: {fileID: 0}
    - target: {fileID: 400002, guid: ace2d4bf56f98df4196ff81845a465d7, type: 3}
      propertyPath: m_LocalPosition.z
      value: -28.6
      objectReference: {fileID: 0}
    - target: {fileID: 400002, guid: ace2d4bf56f98df4196ff81845a465d7, type: 3}
      propertyPath: m_LocalRotation.x
      value: 0
      objectReference: {fileID: 0}
    - target: {fileID: 400002, guid: ace2d4bf56f98df4196ff81845a465d7, type: 3}
      propertyPath: m_LocalRotation.y
      value: 0
      objectReference: {fileID: 0}
    - target: {fileID: 400002, guid: ace2d4bf56f98df4196ff81845a465d7, type: 3}
      propertyPath: m_LocalRotation.z
      value: 0
      objectReference: {fileID: 0}
    - target: {fileID: 400002, guid: ace2d4bf56f98df4196ff81845a465d7, type: 3}
      propertyPath: m_LocalRotation.w
      value: 1
      objectReference: {fileID: 0}
    - target: {fileID: 400002, guid: ace2d4bf56f98df4196ff81845a465d7, type: 3}
      propertyPath: m_RootOrder
      value: 1
      objectReference: {fileID: 0}
    - target: {fileID: 22400022, guid: ace2d4bf56f98df4196ff81845a465d7, type: 3}
      propertyPath: m_LocalPosition.x
      value: 0
      objectReference: {fileID: 0}
    - target: {fileID: 22400022, guid: ace2d4bf56f98df4196ff81845a465d7, type: 3}
      propertyPath: m_LocalPosition.y
      value: 0
      objectReference: {fileID: 0}
    - target: {fileID: 22410768, guid: ace2d4bf56f98df4196ff81845a465d7, type: 3}
      propertyPath: m_LocalPosition.x
      value: 0
      objectReference: {fileID: 0}
    - target: {fileID: 22410768, guid: ace2d4bf56f98df4196ff81845a465d7, type: 3}
      propertyPath: m_LocalPosition.y
      value: 0
      objectReference: {fileID: 0}
    - target: {fileID: 22410768, guid: ace2d4bf56f98df4196ff81845a465d7, type: 3}
      propertyPath: m_AnchoredPosition.x
      value: 0
      objectReference: {fileID: 0}
    - target: {fileID: 22410768, guid: ace2d4bf56f98df4196ff81845a465d7, type: 3}
      propertyPath: m_AnchoredPosition.y
      value: 0
      objectReference: {fileID: 0}
    - target: {fileID: 224000011021135678, guid: ace2d4bf56f98df4196ff81845a465d7,
        type: 3}
      propertyPath: m_LocalPosition.x
      value: 0
      objectReference: {fileID: 0}
    - target: {fileID: 224000011021135678, guid: ace2d4bf56f98df4196ff81845a465d7,
        type: 3}
      propertyPath: m_LocalPosition.y
      value: 0
      objectReference: {fileID: 0}
    - target: {fileID: 22401352, guid: ace2d4bf56f98df4196ff81845a465d7, type: 3}
      propertyPath: m_LocalPosition.x
      value: 0
      objectReference: {fileID: 0}
    - target: {fileID: 22401352, guid: ace2d4bf56f98df4196ff81845a465d7, type: 3}
      propertyPath: m_LocalPosition.y
      value: 0
      objectReference: {fileID: 0}
    - target: {fileID: 22470538, guid: ace2d4bf56f98df4196ff81845a465d7, type: 3}
      propertyPath: m_LocalPosition.x
      value: 0
      objectReference: {fileID: 0}
    - target: {fileID: 22470538, guid: ace2d4bf56f98df4196ff81845a465d7, type: 3}
      propertyPath: m_LocalPosition.y
      value: 0
      objectReference: {fileID: 0}
    - target: {fileID: 22400012, guid: ace2d4bf56f98df4196ff81845a465d7, type: 3}
      propertyPath: m_LocalPosition.x
      value: 0
      objectReference: {fileID: 0}
    - target: {fileID: 22400012, guid: ace2d4bf56f98df4196ff81845a465d7, type: 3}
      propertyPath: m_LocalPosition.y
      value: 0
      objectReference: {fileID: 0}
    - target: {fileID: 22400028, guid: ace2d4bf56f98df4196ff81845a465d7, type: 3}
      propertyPath: m_LocalPosition.x
      value: 0
      objectReference: {fileID: 0}
    - target: {fileID: 22400028, guid: ace2d4bf56f98df4196ff81845a465d7, type: 3}
      propertyPath: m_LocalPosition.y
      value: 0
      objectReference: {fileID: 0}
    - target: {fileID: 224336803310349020, guid: ace2d4bf56f98df4196ff81845a465d7,
        type: 3}
      propertyPath: m_LocalPosition.x
      value: 0
      objectReference: {fileID: 0}
    - target: {fileID: 224336803310349020, guid: ace2d4bf56f98df4196ff81845a465d7,
        type: 3}
      propertyPath: m_LocalPosition.y
      value: 0
      objectReference: {fileID: 0}
    - target: {fileID: 22480844, guid: ace2d4bf56f98df4196ff81845a465d7, type: 3}
      propertyPath: m_LocalPosition.x
      value: 0
      objectReference: {fileID: 0}
    - target: {fileID: 22480844, guid: ace2d4bf56f98df4196ff81845a465d7, type: 3}
      propertyPath: m_LocalPosition.y
      value: 0
      objectReference: {fileID: 0}
    - target: {fileID: 22480844, guid: ace2d4bf56f98df4196ff81845a465d7, type: 3}
      propertyPath: m_AnchoredPosition.x
      value: 0
      objectReference: {fileID: 0}
    - target: {fileID: 22480844, guid: ace2d4bf56f98df4196ff81845a465d7, type: 3}
      propertyPath: m_AnchoredPosition.y
      value: 0
      objectReference: {fileID: 0}
    - target: {fileID: 22470620, guid: ace2d4bf56f98df4196ff81845a465d7, type: 3}
      propertyPath: m_LocalPosition.x
      value: 0
      objectReference: {fileID: 0}
    - target: {fileID: 22470620, guid: ace2d4bf56f98df4196ff81845a465d7, type: 3}
      propertyPath: m_LocalPosition.y
      value: 0
      objectReference: {fileID: 0}
    - target: {fileID: 22484756, guid: ace2d4bf56f98df4196ff81845a465d7, type: 3}
      propertyPath: m_LocalPosition.x
      value: 0
      objectReference: {fileID: 0}
    - target: {fileID: 22484756, guid: ace2d4bf56f98df4196ff81845a465d7, type: 3}
      propertyPath: m_LocalPosition.y
      value: 0
      objectReference: {fileID: 0}
    - target: {fileID: 22444736, guid: ace2d4bf56f98df4196ff81845a465d7, type: 3}
      propertyPath: m_LocalPosition.x
      value: 0
      objectReference: {fileID: 0}
    - target: {fileID: 22444736, guid: ace2d4bf56f98df4196ff81845a465d7, type: 3}
      propertyPath: m_LocalPosition.y
      value: 0
      objectReference: {fileID: 0}
    - target: {fileID: 22460478, guid: ace2d4bf56f98df4196ff81845a465d7, type: 3}
      propertyPath: m_LocalPosition.x
      value: 0
      objectReference: {fileID: 0}
    - target: {fileID: 22460478, guid: ace2d4bf56f98df4196ff81845a465d7, type: 3}
      propertyPath: m_LocalPosition.y
      value: 0
      objectReference: {fileID: 0}
    - target: {fileID: 22422764, guid: ace2d4bf56f98df4196ff81845a465d7, type: 3}
      propertyPath: m_LocalPosition.x
      value: 0
      objectReference: {fileID: 0}
    - target: {fileID: 22422764, guid: ace2d4bf56f98df4196ff81845a465d7, type: 3}
      propertyPath: m_LocalPosition.y
      value: 0
      objectReference: {fileID: 0}
    - target: {fileID: 224063749093278026, guid: ace2d4bf56f98df4196ff81845a465d7,
        type: 3}
      propertyPath: m_AnchoredPosition.y
      value: 0
      objectReference: {fileID: 0}
    - target: {fileID: 11410938, guid: ace2d4bf56f98df4196ff81845a465d7, type: 3}
      propertyPath: ButtonPressed.m_PersistentCalls.m_Calls.Array.data[0].m_MethodName
      value: Test
      objectReference: {fileID: 0}
    - target: {fileID: 11410938, guid: ace2d4bf56f98df4196ff81845a465d7, type: 3}
      propertyPath: ButtonPressed.m_PersistentCalls.m_Calls.Array.data[0].m_Mode
      value: 5
      objectReference: {fileID: 0}
    - target: {fileID: 11410938, guid: ace2d4bf56f98df4196ff81845a465d7, type: 3}
      propertyPath: ButtonPressed.m_PersistentCalls.m_Calls.Array.data[0].m_Arguments.m_StringArgument
      value: Jump
      objectReference: {fileID: 0}
    m_RemovedComponents: []
  m_SourcePrefab: {fileID: 100100000, guid: ace2d4bf56f98df4196ff81845a465d7, type: 3}
--- !u!1001 &1697003742
PrefabInstance:
  m_ObjectHideFlags: 0
  serializedVersion: 2
  m_Modification:
    m_TransformParent: {fileID: 0}
    m_Modifications:
    - target: {fileID: 490956, guid: 6059d977d1f210348bfbe1a82f4f9883, type: 3}
      propertyPath: m_LocalPosition.x
      value: -107.3
      objectReference: {fileID: 0}
    - target: {fileID: 490956, guid: 6059d977d1f210348bfbe1a82f4f9883, type: 3}
      propertyPath: m_LocalPosition.y
      value: 9.6
      objectReference: {fileID: 0}
    - target: {fileID: 490956, guid: 6059d977d1f210348bfbe1a82f4f9883, type: 3}
      propertyPath: m_LocalPosition.z
      value: 100
      objectReference: {fileID: 0}
    - target: {fileID: 490956, guid: 6059d977d1f210348bfbe1a82f4f9883, type: 3}
      propertyPath: m_LocalRotation.x
      value: 0
      objectReference: {fileID: 0}
    - target: {fileID: 490956, guid: 6059d977d1f210348bfbe1a82f4f9883, type: 3}
      propertyPath: m_LocalRotation.y
      value: 0
      objectReference: {fileID: 0}
    - target: {fileID: 490956, guid: 6059d977d1f210348bfbe1a82f4f9883, type: 3}
      propertyPath: m_LocalRotation.z
      value: 0
      objectReference: {fileID: 0}
    - target: {fileID: 490956, guid: 6059d977d1f210348bfbe1a82f4f9883, type: 3}
      propertyPath: m_LocalRotation.w
      value: 1
      objectReference: {fileID: 0}
    - target: {fileID: 490956, guid: 6059d977d1f210348bfbe1a82f4f9883, type: 3}
      propertyPath: m_RootOrder
      value: 0
      objectReference: {fileID: 0}
    m_RemovedComponents: []
  m_SourcePrefab: {fileID: 100100000, guid: 6059d977d1f210348bfbe1a82f4f9883, type: 3}
--- !u!1001 &1736196670
PrefabInstance:
  m_ObjectHideFlags: 0
  serializedVersion: 2
  m_Modification:
    m_TransformParent: {fileID: 1494325979}
    m_Modifications:
    - target: {fileID: 108046, guid: ce0837de5d2b5d140aea3195484dca8a, type: 3}
      propertyPath: m_Name
      value: Platform100x1000 (6)
      objectReference: {fileID: 0}
    - target: {fileID: 408230, guid: ce0837de5d2b5d140aea3195484dca8a, type: 3}
      propertyPath: m_LocalPosition.x
      value: -99.2
      objectReference: {fileID: 0}
    - target: {fileID: 408230, guid: ce0837de5d2b5d140aea3195484dca8a, type: 3}
      propertyPath: m_LocalPosition.y
      value: -8.5
      objectReference: {fileID: 0}
    - target: {fileID: 408230, guid: ce0837de5d2b5d140aea3195484dca8a, type: 3}
      propertyPath: m_LocalPosition.z
      value: -17.551758
      objectReference: {fileID: 0}
    - target: {fileID: 408230, guid: ce0837de5d2b5d140aea3195484dca8a, type: 3}
      propertyPath: m_LocalRotation.x
      value: 0
      objectReference: {fileID: 0}
    - target: {fileID: 408230, guid: ce0837de5d2b5d140aea3195484dca8a, type: 3}
      propertyPath: m_LocalRotation.y
      value: 0
      objectReference: {fileID: 0}
    - target: {fileID: 408230, guid: ce0837de5d2b5d140aea3195484dca8a, type: 3}
      propertyPath: m_LocalRotation.z
      value: 0
      objectReference: {fileID: 0}
    - target: {fileID: 408230, guid: ce0837de5d2b5d140aea3195484dca8a, type: 3}
      propertyPath: m_LocalRotation.w
      value: 1
      objectReference: {fileID: 0}
    - target: {fileID: 408230, guid: ce0837de5d2b5d140aea3195484dca8a, type: 3}
      propertyPath: m_RootOrder
      value: 6
      objectReference: {fileID: 0}
    m_RemovedComponents: []
  m_SourcePrefab: {fileID: 100100000, guid: ce0837de5d2b5d140aea3195484dca8a, type: 3}
--- !u!1 &1858949005
GameObject:
  m_ObjectHideFlags: 0
  m_CorrespondingSourceObject: {fileID: 0}
  m_PrefabInstance: {fileID: 0}
  m_PrefabAsset: {fileID: 0}
  serializedVersion: 6
  m_Component:
  - component: {fileID: 1858949006}
  m_Layer: 0
  m_Name: Level
  m_TagString: Untagged
  m_Icon: {fileID: 0}
  m_NavMeshLayer: 0
  m_StaticEditorFlags: 0
  m_IsActive: 1
--- !u!4 &1858949006
Transform:
  m_ObjectHideFlags: 0
  m_CorrespondingSourceObject: {fileID: 0}
  m_PrefabInstance: {fileID: 0}
  m_PrefabAsset: {fileID: 0}
  m_GameObject: {fileID: 1858949005}
  m_LocalRotation: {x: 0, y: 0, z: 0, w: 1}
  m_LocalPosition: {x: 13.3, y: 7, z: 0}
  m_LocalScale: {x: 1, y: 1, z: 1}
  m_Children:
  - {fileID: 1494325979}
  - {fileID: 1505988468}
  - {fileID: 1240283291}
  m_Father: {fileID: 0}
  m_RootOrder: 4
  m_LocalEulerAnglesHint: {x: 0, y: 0, z: 0}
--- !u!1 &1963870468
GameObject:
  m_ObjectHideFlags: 0
  m_CorrespondingSourceObject: {fileID: 162134, guid: 927a7e5e78367cc4ba304dae75c80ddf,
    type: 3}
  m_PrefabInstance: {fileID: 0}
  m_PrefabAsset: {fileID: 0}
  serializedVersion: 6
  m_Component:
  - component: {fileID: 1963870469}
  - component: {fileID: 1963870471}
  - component: {fileID: 1963870470}
  m_Layer: 5
  m_Name: Text
  m_TagString: Untagged
  m_Icon: {fileID: 0}
  m_NavMeshLayer: 0
  m_StaticEditorFlags: 0
  m_IsActive: 1
--- !u!224 &1963870469
RectTransform:
  m_ObjectHideFlags: 0
  m_CorrespondingSourceObject: {fileID: 22426602, guid: 927a7e5e78367cc4ba304dae75c80ddf,
    type: 3}
  m_PrefabInstance: {fileID: 0}
  m_PrefabAsset: {fileID: 0}
  m_GameObject: {fileID: 1963870468}
  m_LocalRotation: {x: 0, y: 0, z: 0, w: 1}
  m_LocalPosition: {x: 0, y: 0, z: 0}
  m_LocalScale: {x: 1, y: 1, z: 1}
  m_Children: []
  m_Father: {fileID: 543392102}
  m_RootOrder: 0
  m_LocalEulerAnglesHint: {x: 0, y: 0, z: 0}
  m_AnchorMin: {x: 0, y: 0}
  m_AnchorMax: {x: 0, y: 0}
  m_AnchoredPosition: {x: 0, y: 0}
  m_SizeDelta: {x: 0, y: 0}
  m_Pivot: {x: 0.5, y: 0.5}
--- !u!114 &1963870470
MonoBehaviour:
  m_ObjectHideFlags: 0
  m_CorrespondingSourceObject: {fileID: 11417616, guid: 927a7e5e78367cc4ba304dae75c80ddf,
    type: 3}
  m_PrefabInstance: {fileID: 0}
  m_PrefabAsset: {fileID: 0}
  m_GameObject: {fileID: 1963870468}
  m_Enabled: 1
  m_EditorHideFlags: 0
  m_Script: {fileID: 708705254, guid: f5f67c52d1564df4a8936ccd202a3bd8, type: 3}
  m_Name: 
  m_EditorClassIdentifier: 
  m_Material: {fileID: 0}
  m_Color: {r: 1, g: 1, b: 1, a: 1}
  m_RaycastTarget: 1
  m_OnCullStateChanged:
    m_PersistentCalls:
      m_Calls: []
    m_TypeName: UnityEngine.UI.MaskableGraphic+CullStateChangedEvent, UnityEngine.UI,
      Version=1.0.0.0, Culture=neutral, PublicKeyToken=null
  m_FontData:
    m_Font: {fileID: 12800000, guid: abcfe02ca2847804caf9be73c7b8a997, type: 3}
    m_FontSize: 40
    m_FontStyle: 0
    m_BestFit: 0
    m_MinSize: 1
    m_MaxSize: 100
    m_Alignment: 3
    m_AlignByGeometry: 0
    m_RichText: 1
    m_HorizontalOverflow: 0
    m_VerticalOverflow: 0
    m_LineSpacing: 1.2
  m_Text: 'This little corgi can fly!

    <color=black>Press and hold <color=yellow>V</color>, then move around.</color>'
--- !u!222 &1963870471
CanvasRenderer:
  m_ObjectHideFlags: 0
  m_CorrespondingSourceObject: {fileID: 22286048, guid: 927a7e5e78367cc4ba304dae75c80ddf,
    type: 3}
  m_PrefabInstance: {fileID: 0}
  m_PrefabAsset: {fileID: 0}
  m_GameObject: {fileID: 1963870468}
  m_CullTransparentMesh: 0
--- !u!1001 &2002450778
PrefabInstance:
  m_ObjectHideFlags: 0
  serializedVersion: 2
  m_Modification:
    m_TransformParent: {fileID: 1494325979}
    m_Modifications:
    - target: {fileID: 108046, guid: ce0837de5d2b5d140aea3195484dca8a, type: 3}
      propertyPath: m_Name
      value: Platform100x1000 (2)
      objectReference: {fileID: 0}
    - target: {fileID: 408230, guid: ce0837de5d2b5d140aea3195484dca8a, type: 3}
      propertyPath: m_LocalPosition.x
      value: -60.2
      objectReference: {fileID: 0}
    - target: {fileID: 408230, guid: ce0837de5d2b5d140aea3195484dca8a, type: 3}
      propertyPath: m_LocalPosition.y
      value: -8.5
      objectReference: {fileID: 0}
    - target: {fileID: 408230, guid: ce0837de5d2b5d140aea3195484dca8a, type: 3}
      propertyPath: m_LocalPosition.z
      value: -17.551758
      objectReference: {fileID: 0}
    - target: {fileID: 408230, guid: ce0837de5d2b5d140aea3195484dca8a, type: 3}
      propertyPath: m_LocalRotation.x
      value: 0
      objectReference: {fileID: 0}
    - target: {fileID: 408230, guid: ce0837de5d2b5d140aea3195484dca8a, type: 3}
      propertyPath: m_LocalRotation.y
      value: 0
      objectReference: {fileID: 0}
    - target: {fileID: 408230, guid: ce0837de5d2b5d140aea3195484dca8a, type: 3}
      propertyPath: m_LocalRotation.z
      value: 0
      objectReference: {fileID: 0}
    - target: {fileID: 408230, guid: ce0837de5d2b5d140aea3195484dca8a, type: 3}
      propertyPath: m_LocalRotation.w
      value: 1
      objectReference: {fileID: 0}
    - target: {fileID: 408230, guid: ce0837de5d2b5d140aea3195484dca8a, type: 3}
      propertyPath: m_RootOrder
      value: 5
      objectReference: {fileID: 0}
    m_RemovedComponents: []
  m_SourcePrefab: {fileID: 100100000, guid: ce0837de5d2b5d140aea3195484dca8a, type: 3}
--- !u!4 &2010980462 stripped
Transform:
  m_CorrespondingSourceObject: {fileID: 408230, guid: ce0837de5d2b5d140aea3195484dca8a,
    type: 3}
  m_PrefabInstance: {fileID: 1736196670}
  m_PrefabAsset: {fileID: 0}
--- !u!4 &2137779173 stripped
Transform:
  m_CorrespondingSourceObject: {fileID: 471364, guid: f58a667c8217aaf42b28e20ef609767b,
    type: 3}
  m_PrefabInstance: {fileID: 674179112}
  m_PrefabAsset: {fileID: 0}
