%YAML 1.1
%TAG !u! tag:unity3d.com,2011:
--- !u!1 &1537294921401813233
GameObject:
  m_ObjectHideFlags: 0
  m_CorrespondingSourceObject: {fileID: 0}
  m_PrefabInstance: {fileID: 0}
  m_PrefabAsset: {fileID: 0}
  serializedVersion: 6
  m_Component:
  - component: {fileID: 412301894568943553}
  - component: {fileID: 5143225907905977835}
  m_Layer: 0
  m_Name: Dialogos Yuli
  m_TagString: Untagged
  m_Icon: {fileID: 0}
  m_NavMeshLayer: 0
  m_StaticEditorFlags: 0
  m_IsActive: 1
--- !u!4 &412301894568943553
Transform:
  m_ObjectHideFlags: 0
  m_CorrespondingSourceObject: {fileID: 0}
  m_PrefabInstance: {fileID: 0}
  m_PrefabAsset: {fileID: 0}
  m_GameObject: {fileID: 1537294921401813233}
  m_LocalRotation: {x: 0, y: 0, z: 0, w: 1}
  m_LocalPosition: {x: 1.6326137, y: 0.33578062, z: 63.097656}
  m_LocalScale: {x: 1, y: 1, z: 1}
  m_Children: []
  m_Father: {fileID: 0}
  m_RootOrder: 0
  m_LocalEulerAnglesHint: {x: 0, y: 0, z: 0}
--- !u!114 &5143225907905977835
MonoBehaviour:
  m_ObjectHideFlags: 0
  m_CorrespondingSourceObject: {fileID: 0}
  m_PrefabInstance: {fileID: 0}
  m_PrefabAsset: {fileID: 0}
  m_GameObject: {fileID: 1537294921401813233}
  m_Enabled: 1
  m_EditorHideFlags: 0
  m_Script: {fileID: 11500000, guid: 2f815d75230ab1843bd98818b7a53b98, type: 3}
  m_Name: 
  m_EditorClassIdentifier: 
  CurrentLanguage: 0
  Folders:
  - Name: Dialog 1
    Items:
    - Name: Chie 1
      Spanish: "\xBFXue?"
      English: Xue?
    - Name: Xue 1
      Spanish: "Aqu\xED estoy. Aqu\xED hace mucho fr\xEDo, la puerta principal no
        abre y la de salida tampoco. Ay\xFAdame a salir. "
      English: Here I am. It's cold here, the main door can't be opened, neither
        the exit. Help me to get out of here.
    - Name: Chie 2
      Spanish: "Tranquila, estoy con Tesla buscando una soluci\xF3n. Resiste, s\xE9
        que puedes hacerlo."
      English: Calm down, I'm with Tesla searching for a solution. Hang on, I know
        you can do it.
    - Name: Chie 3
      Spanish: "\xBFPodr\xEDas apagar esa alarma? Ya me tiene harta. "
      English: Can you shut the alarm down? I' getting tired of it.
    - Name: Tesla 1
      Spanish: 'Lo he intentado, pero no responde a mis comandos. '
      English: I've een trying, but It does not respond to my commands.
    - Name: Chie 4
      Spanish: "Un problema a la vez. Realiza un escaneo de esta sustancia. Necesitamos
        saber a qu\xE9 nos estamos enfrentando.  "
      English: One problem at the time. Do a scan of this substance. We need to know
        to what are we dealing of.
    - Name: Tesla 2
      Spanish: "Claro, como no eres tu la que lo tiene que tocar\u2026"
      English: Sure, you are not the one that have to touch it...
    - Name: Chie 5
      Spanish: "\xBFLe digo a Xue que no la quieres ayudar?"
      English: Do I tell Xue that you don't want to help her?
    - Name: Tesla 3
      Spanish: "Esta sustancia podr\xEDa ser perjudicial para nuestro funcionamiento,
        voy a necesitar una segunda confirmaci\xF3n."
      English: This substance could be harmful to our functioning, I have to ask
        you a second confirmation.
    - Name: Chie 6
      Spanish: "Autorizado. Comienza el an\xE1lisis. "
      English: Authorized. Start the analysis.
    - Name: Tesla 4
      Spanish: "AN\xC1LISIS INICIADO. 10%... 40%... 80%... "
      English: 'STARTIING ANALYSIS. 10%... 40%... 80%... '
    - Name: Chie 7
      Spanish: "Maldita sea. Tesla me lo dijo, que descuidada fui.  Soy in\xFAtil
        sin \xE9l."
      English: Damn it. Tesla told me so, I was sloppy. I'm useless without him.
    - Name: Chie 8
      Spanish: "\xA1\xBFQU\xC9 LE HICISTE?! \xA1MALDICI\xD3N!"
      English: WHAT DID YOU DO?! DAMN IT!
    - Name: Xue 2
      Spanish: "\xBFQue sucede Chie? \xA1\xBFEst\xE1 todo bien?!"
      English: What's wrong Chie? It's everything ok?
    - Name: Chie 9
      Spanish: 'No te preocupes por nosotros, solo tuvimos un percance con... (Se
        queda en silencio por un instante.) Con Tesla. '
      English: Don't worry about us, it was just a mishap with... (silence) with
        Tesla.
    - Name: Xue 3
      Spanish: "\xA1\xBFMi peque\xF1o Tesla?!"
      English: My dear Tesla?!
    - Name: Chie 10
      Spanish: "S\xED, pero no parece grave. Ir\xE9 a revisarlo\u2026 Todo saldr\xE1
        bien. "
      English: Yes, but it seems to not be serious... I'm gonna to check it. Everythiing
        will be ok.
    - Name: D 1
      Spanish: Pobre Tesla, tener que seguir ordenes de incompetentes.
      English: Poor Tesla, to have to follow the orders of incompetents.
    - Name: Chie 11
      Spanish: "\xBFTe parece gracioso?"
      English: Do you think this is funny?
