%YAML 1.1
%TAG !u! tag:unity3d.com,2011:
--- !u!114 &11400000
MonoBehaviour:
  m_ObjectHideFlags: 0
  m_CorrespondingSourceObject: {fileID: 0}
  m_PrefabInstance: {fileID: 0}
  m_PrefabAsset: {fileID: 0}
  m_GameObject: {fileID: 0}
  m_Enabled: 1
  m_EditorHideFlags: 0
  m_Script: {fileID: 11500000, guid: 9fac9bd89dcafc049b19f543ccf8fd57, type: 3}
  m_Name: Disipador
  m_EditorClassIdentifier: 
  ItemID: Disipador
  TargetInventoryName: MainInventory
  Usable: 0
  Equippable: 0
  Quantity: 1
  ItemName: Disipador
  ShortDescription: 
  Description: 
  CanMoveObject: 1
  CanSwapObject: 1
  Icon: {fileID: 21300004, guid: 079f5a8d00f74c84181be0a872b4c39d, type: 3}
  Prefab: {fileID: 399985764774744785, guid: 8ebf64294facc674fb3135c0d11f9cf9, type: 3}
  SpawnShape: 1
  PrefabDropMinDistance: {x: 2, y: 2, z: 0}
  PrefabDropMaxDistance: {x: 3, y: 3, z: 0}
  MaximumStack: 1
  ItemClass: 0
  TargetEquipmentInventoryName: 
  EquippedSound: {fileID: 0}
  UsedSound: {fileID: 0}
  MovedSound: {fileID: 0}
  DroppedSound: {fileID: 0}
  UseDefaultSoundsIfNull: 1
