%YAML 1.1
%TAG !u! tag:unity3d.com,2011:
--- !u!114 &11400000
MonoBehaviour:
  m_ObjectHideFlags: 0
  m_CorrespondingSourceObject: {fileID: 0}
  m_PrefabInstance: {fileID: 0}
  m_PrefabAsset: {fileID: 0}
  m_GameObject: {fileID: 0}
  m_Enabled: 1
  m_EditorHideFlags: 0
  m_Script: {fileID: 11500000, guid: 9fac9bd89dcafc049b19f543ccf8fd57, type: 3}
  m_Name: Marte
  m_EditorClassIdentifier: 
  ItemID: Marte
  TargetInventoryName: MainInventory
  Usable: 0
  Equippable: 0
  Quantity: 1
  ItemName: Marte
  ShortDescription: 
  Description: 
  CanMoveObject: 1
  CanSwapObject: 1
  Icon: {fileID: 21300000, guid: d2e5be676d7e8594bac76c0812746035, type: 3}
  Prefab: {fileID: 1864765233382375750, guid: 229438a70c5b21f4ca03824286ed2803, type: 3}
  SpawnShape: 1
  PrefabDropMinDistance: {x: 2, y: 2, z: 0}
  PrefabDropMaxDistance: {x: 3, y: 3, z: 0}
  MaximumStack: 1
  ItemClass: 0
  TargetEquipmentInventoryName: 
  EquippedSound: {fileID: 0}
  UsedSound: {fileID: 0}
  MovedSound: {fileID: 0}
  DroppedSound: {fileID: 0}
  UseDefaultSoundsIfNull: 1
